{
    "version": "2.0.0",
    "tasks": [
        {
            "label": "CMake debug",
            "type": "shell",
            "command": "cmake",
            "options": {
                "cwd": "${workspaceFolder}/build"
            },
            "args": [
                "-DG4_USE_CRMC=OFF",
                "-DCMAKE_BUILD_TYPE=DEBUG",
                "-DCMAKE_EXPORT_COMPILE_COMMANDS=ON",
                ".."
            ],
            "detail": "CMake configuration with BUILD_TYPE=DEBUG"
        },
        {
            "label": "Make",
            "type": "shell",
            "command": "make",
            "options": {
                "cwd": "${workspaceFolder}/build"
            },
            "args": [
                "-j2"
            ],
            "group": {
                "kind": "build",
                "isDefault": true
            },
            "presentation": {
                "showReuseMessage": false
            },
            "detail": "Continue to make in build directory"
        },
        {
            "label": "Build clean",
            "type": "shell",
            "command": "if [ -d build ] ; then rm -rf build/* ; else mkdir build ; fi",
            "options": {
                "cwd": "${workspaceFolder}"
            },
            "args": [],
            "detail": "Clean build directory",
            "problemMatcher": [],
            "group": {
                "kind": "build",
                "isDefault": true
            }
        },
        {
            "label": "Build",
            "options": {
                "cwd": "${workspaceFolder}"
            },
            "dependsOrder": "sequence",
            "dependsOn": [
                "Build clean",
                "CMake debug",
                "Make"
            ],
            "detail": "Build all using cmake/make",
            "problemMatcher": []
        },
        {
            "label": "Git tar",
            "type": "shell",
            "command": "git",
            "options": {
                "cwd": "${workspaceFolder}",
                "env": {
                    "NAMEVER": "mtb-1.0"
                }
            },
            "args": [
                "archive",
                "HEAD",
                "--format=tar.gz",
                "--prefix=${NAMEVER}/",
                "--verbose",
                "-o",
                "${NAMEVER}.tar.gz"
            ],
            "detail": "Tar source by git archive",
            "problemMatcher": []
        },
        {
            "label": "GDB calltree",
            "type": "shell",
            "command": "gdbcalltree.sh",
            "options": {
                "cwd": "${workspaceFolder}/build",
                "env": {
                    "LD_LIBRARY_PATH": "${LD_LIBRARY_PATH}:/home/alwin/local/geant4-new-event/lib",
                    "GDB_ARGS": "./exampleB1 0"
                }
            },
            "args": [
                "${fileBasename}:${lineNumber}"
            ],
            "dependsOrder": "sequence",
            "dependsOn": [
                "Make"
            ],
            "detail": "Get calltree by gdb backtrace"
        },
        {
            "label": "Disassembly file",
            "type": "shell",
            "command": "objdump",
            "options": {
                "cwd": "${workspaceFolder}/build"
            },
            "args": [
                "-d",
                "-M",
                "intel",
                "-l",
                "exampleB1",
                ">",
                "${workspaceFolderBasename}.S"
            ],
            "dependsOrder": "sequence",
            "dependsOn": [
                "Make"
            ],
            "detail": "Dump Disassembly file",
            "problemMatcher": []
        }
    ]
}